<?xml version="1.0" encoding="UTF-8"?>
<svg xmlns="http://www.w3.org/2000/svg" xmlns:xlink="http://www.w3.org/1999/xlink" width="16pt" height="16pt" viewBox="0 0 16 16" version="1.1">
<g id="surface1">
<path style=" stroke:none;fill-rule:nonzero;fill:rgb(100%,100%,100%);fill-opacity:1;" d="M 8 0 C 3.582031 0 0 3.582031 0 8 C 0 12.417969 3.582031 16 8 16 C 12.417969 16 16 12.417969 16 8 C 16 3.582031 12.417969 0 8 0 Z M 8.058594 11.84375 C 5.9375 11.84375 4.21875 10.125 4.214844 8.003906 C 4.214844 5.882812 5.933594 4.164062 8.054688 4.160156 C 10.175781 4.160156 11.898438 5.878906 11.898438 8 C 11.894531 10.121094 10.179688 11.839844 8.058594 11.84375 Z M 8.058594 11.84375 "/>
</g>
</svg>
