<?xml version="1.0" encoding="UTF-8"?>
<svg xmlns="http://www.w3.org/2000/svg" xmlns:xlink="http://www.w3.org/1999/xlink" width="16pt" height="16pt" viewBox="0 0 16 16" version="1.1">
<g id="surface1">
<path style=" stroke:none;fill-rule:nonzero;fill:rgb(100%,100%,100%);fill-opacity:1;" d="M 8.519531 6.292969 C 7.921875 4.597656 6.308594 3.382812 4.414062 3.382812 C 2.003906 3.382812 0.0507812 5.335938 0.0507812 7.746094 C 0.0507812 10.15625 2.003906 12.109375 4.414062 12.109375 C 6.308594 12.109375 7.921875 10.894531 8.519531 9.199219 L 11.683594 9.199219 L 11.683594 12.109375 L 14.59375 12.109375 L 14.59375 9.199219 L 16.046875 9.199219 L 16.046875 6.292969 Z M 4.414062 9.199219 C 3.609375 9.199219 2.957031 8.550781 2.957031 7.746094 C 2.957031 6.941406 3.609375 6.292969 4.414062 6.292969 C 5.214844 6.292969 5.867188 6.941406 5.867188 7.746094 C 5.867188 8.550781 5.214844 9.199219 4.414062 9.199219 Z M 4.414062 9.199219 "/>
</g>
</svg>
